EE216A_F15_FinalProject_v2/verilog/transcript
# //  ModelSim SE-64 10.1c Jul 27 2012 Linux 2.6.18-406.el5
# //
# //  Copyright 1991-2012 Mentor Graphics Corporation
# //  All Rights Reserved.
# //
# //  THIS WORK CONTAINS TRADE SECRET AND PROPRIETARY INFORMATION
# //  WHICH IS THE PROPERTY OF MENTOR GRAPHICS CORPORATION OR ITS
# //  LICENSORS AND IS SUBJECT TO LICENSE TERMS.
# //
# Loading project centerScale
# Compile of hornerLoop.v was successful.
# Compile of control.v failed with 1 errors.
# Compile of control_tb.v was successful.
# 3 compiles, 1 failed with 1 error. 
# Compile of hornerLoop.v was successful.
# Compile of control.v failed with 1 errors.
# Compile of control_tb.v was successful.
# 3 compiles, 1 failed with 1 error. 
# Compile of hornerLoop.v was successful.
# Compile of control.v was successful.
# Compile of control_tb.v was successful.
# 3 compiles, 0 failed with no errors. 
vsim -novopt work.control_tb
# vsim -novopt work.control_tb 
# Refreshing /w/home.02/ee/grad/jordi/ee216a/EEM216A_project/EE216A_F15_FinalProject_v2/verilog/work.control_tb
# Loading work.control_tb
# Refreshing /w/home.02/ee/grad/jordi/ee216a/EEM216A_project/EE216A_F15_FinalProject_v2/verilog/work.control
# Loading work.control
restart; run -all
# *************
# coeff_sel: 10, sum_rst: 0, sum_en: 0, srdyo: 0, count:   0
# *************
# coeff_sel: 10, sum_rst: 0, sum_en: 0, srdyo: 0, count:   0
# *************
# coeff_sel: 10, sum_rst: 0, sum_en: 0, srdyo: 0, count:   0
# *************
# coeff_sel: 10, sum_rst: 0, sum_en: 0, srdyo: 0, count:   0
# Break in Module control_tb at /w/home.02/ee/grad/jordi/ee216a/EEM216A_project/EE216A_F15_FinalProject_v2/verilog/control_tb.v line 79
# Compile of hornerLoop.v was successful.
# Compile of control.v was successful.
# Compile of control_tb.v was successful.
# 3 compiles, 0 failed with no errors. 
vsim -novopt work.control_tb
# vsim -novopt work.control_tb 
# Refreshing /w/home.02/ee/grad/jordi/ee216a/EEM216A_project/EE216A_F15_FinalProject_v2/verilog/work.control_tb
# Loading work.control_tb
# Refreshing /w/home.02/ee/grad/jordi/ee216a/EEM216A_project/EE216A_F15_FinalProject_v2/verilog/work.control
# Loading work.control
restart; run -all
# *************
# coeff_sel: 10, sum_rst: 0, sum_en: 0, srdyo: 0, count:   0
# *************
# coeff_sel: 10, sum_rst: 0, sum_en: 0, srdyo: 0, count:   0
# *************
# coeff_sel: 10, sum_rst: 0, sum_en: 0, srdyo: 0, count:   0
# *************
# coeff_sel: 10, sum_rst: 0, sum_en: 0, srdyo: 0, count:   0
# *************
# cnt:           1
# coeff_sel: 10, sum_rst: 1, sum_en: 0, srdyo: 0, count:   1
# *************
# cnt:           2
# coeff_sel: 10, sum_rst: 1, sum_en: 0, srdyo: 0, count:   1
# *************
# cnt:           3
# coeff_sel: 10, sum_rst: 1, sum_en: 0, srdyo: 0, count:   1
# *************
# cnt:           4
# coeff_sel: 10, sum_rst: 1, sum_en: 0, srdyo: 0, count:   1
# *************
# cnt:           5
# coeff_sel: 10, sum_rst: 1, sum_en: 0, srdyo: 0, count:   1
# *************
# cnt:           6
# coeff_sel: 10, sum_rst: 1, sum_en: 0, srdyo: 0, count:   1
# *************
# cnt:           7
# coeff_sel: 10, sum_rst: 1, sum_en: 0, srdyo: 0, count:   1
# *************
# cnt:           8
# coeff_sel: 10, sum_rst: 1, sum_en: 0, srdyo: 0, count:   1
# *************
# cnt:           9
# coeff_sel: 10, sum_rst: 1, sum_en: 0, srdyo: 0, count:   1
# *************
# cnt:          10
# coeff_sel: 10, sum_rst: 1, sum_en: 0, srdyo: 0, count:   1
# *************
# cnt:          11
# coeff_sel: 10, sum_rst: 1, sum_en: 0, srdyo: 0, count:   1
# *************
# cnt:          12
# coeff_sel: 10, sum_rst: 1, sum_en: 0, srdyo: 0, count:   1
# *************
# cnt:          13
# coeff_sel: 10, sum_rst: 1, sum_en: 0, srdyo: 0, count:   1
# *************
# cnt:          14
# coeff_sel: 10, sum_rst: 1, sum_en: 0, srdyo: 0, count:   1
# *************
# cnt:          15
# coeff_sel: 10, sum_rst: 1, sum_en: 0, srdyo: 0, count:   1
# *************
# cnt:          16
# coeff_sel: 10, sum_rst: 1, sum_en: 0, srdyo: 0, count:   1
# *************
# cnt:          17
# coeff_sel: 10, sum_rst: 1, sum_en: 0, srdyo: 0, count:   1
# *************
# cnt:          18
# coeff_sel: 10, sum_rst: 1, sum_en: 0, srdyo: 0, count:   1
# *************
# cnt:          19
# coeff_sel: 10, sum_rst: 1, sum_en: 0, srdyo: 0, count:   1
# *************
# cnt:          20
# coeff_sel: 10, sum_rst: 1, sum_en: 0, srdyo: 0, count:   1
# *************
# cnt:          21
# coeff_sel: 10, sum_rst: 1, sum_en: 0, srdyo: 0, count:   1
# *************
# cnt:          22
# coeff_sel: 10, sum_rst: 1, sum_en: 0, srdyo: 0, count:   1
# *************
# cnt:          23
# coeff_sel: 10, sum_rst: 1, sum_en: 0, srdyo: 0, count:   1
# *************
# cnt:          24
# coeff_sel: 10, sum_rst: 1, sum_en: 0, srdyo: 0, count:   1
# *************
# cnt:          25
# coeff_sel: 10, sum_rst: 1, sum_en: 0, srdyo: 0, count:   1
# *************
# cnt:          26
# coeff_sel: 10, sum_rst: 1, sum_en: 0, srdyo: 0, count:   1
# *************
# cnt:          27
# coeff_sel: 10, sum_rst: 1, sum_en: 0, srdyo: 0, count:   1
# *************
# cnt:          28
# coeff_sel: 10, sum_rst: 1, sum_en: 0, srdyo: 0, count:   1
# *************
# cnt:          29
# coeff_sel: 10, sum_rst: 1, sum_en: 0, srdyo: 0, count:   1
# *************
# cnt:          30
# coeff_sel: 10, sum_rst: 1, sum_en: 0, srdyo: 0, count:   1
# *************
# cnt:          31
# coeff_sel: 10, sum_rst: 1, sum_en: 0, srdyo: 0, count:   1
# *************
# cnt:          32
# coeff_sel: 10, sum_rst: 1, sum_en: 0, srdyo: 0, count:   1
# *************
# cnt:          33
# coeff_sel: 10, sum_rst: 1, sum_en: 0, srdyo: 0, count:   1
# *************
# cnt:          34
# coeff_sel: 10, sum_rst: 1, sum_en: 0, srdyo: 0, count:   1
# *************
# cnt:          35
# coeff_sel: 10, sum_rst: 1, sum_en: 0, srdyo: 0, count:   1
# *************
# cnt:          36
# coeff_sel: 10, sum_rst: 1, sum_en: 0, srdyo: 0, count:   1
# *************
# cnt:          37
# coeff_sel: 10, sum_rst: 1, sum_en: 0, srdyo: 0, count:   1
# *************
# cnt:          38
# coeff_sel: 10, sum_rst: 1, sum_en: 0, srdyo: 0, count:   1
# *************
# cnt:          39
# coeff_sel: 10, sum_rst: 1, sum_en: 0, srdyo: 0, count:   1
# *************
# cnt:          40
# coeff_sel: 10, sum_rst: 1, sum_en: 0, srdyo: 0, count:   1
# *************
# cnt:          41
# coeff_sel: 10, sum_rst: 1, sum_en: 0, srdyo: 0, count:   1
# *************
# cnt:          42
# coeff_sel: 10, sum_rst: 1, sum_en: 0, srdyo: 0, count:   1
# *************
# cnt:          43
# coeff_sel: 10, sum_rst: 1, sum_en: 0, srdyo: 0, count:   1
# *************
# cnt:          44
# coeff_sel: 10, sum_rst: 1, sum_en: 0, srdyo: 0, count:   1
# *************
# cnt:          45
# coeff_sel: 10, sum_rst: 1, sum_en: 0, srdyo: 0, count:   1
# *************
# cnt:          46
# coeff_sel: 10, sum_rst: 1, sum_en: 0, srdyo: 0, count:   1
# *************
# cnt:          47
# coeff_sel: 10, sum_rst: 1, sum_en: 0, srdyo: 0, count:   1
# *************
# cnt:          48
# coeff_sel: 10, sum_rst: 1, sum_en: 0, srdyo: 0, count:   1
# *************
# cnt:          49
# coeff_sel: 10, sum_rst: 1, sum_en: 0, srdyo: 0, count:   1
# *************
# cnt:          50
# coeff_sel: 10, sum_rst: 1, sum_en: 0, srdyo: 0, count:   1
# *************
# cnt:          51
# coeff_sel: 10, sum_rst: 1, sum_en: 0, srdyo: 0, count:   1
# *************
# cnt:          52
# coeff_sel: 10, sum_rst: 1, sum_en: 0, srdyo: 0, count:   1
# *************
# cnt:          53
# coeff_sel: 10, sum_rst: 1, sum_en: 0, srdyo: 0, count:   1
# *************
# cnt:          54
# coeff_sel: 10, sum_rst: 1, sum_en: 0, srdyo: 0, count:   1
# *************
# cnt:          55
# coeff_sel: 10, sum_rst: 1, sum_en: 0, srdyo: 0, count:   1
# *************
# cnt:          56
# coeff_sel: 10, sum_rst: 1, sum_en: 0, srdyo: 0, count:   1
# *************
# cnt:          57
# coeff_sel: 10, sum_rst: 1, sum_en: 0, srdyo: 0, count:   1
# *************
# cnt:          58
# coeff_sel: 10, sum_rst: 1, sum_en: 0, srdyo: 0, count:   1
# *************
# cnt:          59
# coeff_sel: 10, sum_rst: 1, sum_en: 0, srdyo: 0, count:   1
# *************
# cnt:          60
# coeff_sel: 10, sum_rst: 1, sum_en: 0, srdyo: 0, count:   1
# *************
# cnt:          61
# coeff_sel: 10, sum_rst: 1, sum_en: 0, srdyo: 0, count:   1
# *************
# cnt:          62
# coeff_sel: 10, sum_rst: 1, sum_en: 0, srdyo: 0, count:   1
# *************
# cnt:          63
# coeff_sel: 10, sum_rst: 1, sum_en: 0, srdyo: 0, count:   1
# *************
# cnt:          64
# coeff_sel: 10, sum_rst: 1, sum_en: 0, srdyo: 0, count:   1
# *************
# cnt:          65
# coeff_sel: 10, sum_rst: 1, sum_en: 0, srdyo: 0, count:   1
# *************
# cnt:          66
# coeff_sel: 10, sum_rst: 1, sum_en: 0, srdyo: 0, count:   1
# *************
# cnt:          67
# coeff_sel: 10, sum_rst: 1, sum_en: 0, srdyo: 0, count:   1
# *************
# cnt:          68
# coeff_sel: 10, sum_rst: 1, sum_en: 0, srdyo: 0, count:   1
# *************
# cnt:          69
# coeff_sel: 10, sum_rst: 1, sum_en: 0, srdyo: 0, count:   1
# *************
# cnt:          70
# coeff_sel: 10, sum_rst: 1, sum_en: 0, srdyo: 0, count:   1
# *************
# cnt:          71
# coeff_sel: 10, sum_rst: 1, sum_en: 0, srdyo: 0, count:   1
# *************
# cnt:          72
# coeff_sel: 10, sum_rst: 1, sum_en: 0, srdyo: 0, count:   1
# *************
# cnt:          73
# coeff_sel: 10, sum_rst: 1, sum_en: 0, srdyo: 0, count:   1
# *************
# cnt:          74
# coeff_sel: 10, sum_rst: 1, sum_en: 0, srdyo: 0, count:   1
# *************
# cnt:          75
# coeff_sel: 10, sum_rst: 1, sum_en: 0, srdyo: 0, count:   1
# *************
# cnt:          76
# coeff_sel: 10, sum_rst: 1, sum_en: 0, srdyo: 0, count:   1
# *************
# cnt:          77
# coeff_sel: 10, sum_rst: 1, sum_en: 0, srdyo: 0, count:   1
# *************
# cnt:          78
# coeff_sel: 10, sum_rst: 1, sum_en: 0, srdyo: 0, count:   1
# *************
# cnt:          79
# coeff_sel: 10, sum_rst: 1, sum_en: 0, srdyo: 0, count:   1
# *************
# cnt:          80
# coeff_sel: 10, sum_rst: 1, sum_en: 0, srdyo: 0, count:   1
# *************
# cnt:          81
# coeff_sel: 10, sum_rst: 1, sum_en: 0, srdyo: 0, count:   1
# *************
# cnt:          82
# coeff_sel: 10, sum_rst: 1, sum_en: 0, srdyo: 0, count:   1
# *************
# cnt:          83
# coeff_sel: 10, sum_rst: 1, sum_en: 0, srdyo: 0, count:   1
# *************
# cnt:          84
# coeff_sel: 10, sum_rst: 1, sum_en: 0, srdyo: 0, count:   1
# *************
# cnt:          85
# coeff_sel: 10, sum_rst: 1, sum_en: 0, srdyo: 0, count:   1
# *************
# cnt:          86
# coeff_sel: 10, sum_rst: 1, sum_en: 0, srdyo: 0, count:   1
# *************
# cnt:          87
# coeff_sel: 10, sum_rst: 1, sum_en: 0, srdyo: 0, count:   1
# *************
# cnt:          88
# coeff_sel: 10, sum_rst: 1, sum_en: 0, srdyo: 0, count:   1
# *************
# cnt:          89
# coeff_sel: 10, sum_rst: 1, sum_en: 0, srdyo: 0, count:   1
# *************
# cnt:          90
# coeff_sel: 10, sum_rst: 1, sum_en: 0, srdyo: 0, count:   1
# *************
# cnt:          91
# coeff_sel: 10, sum_rst: 1, sum_en: 0, srdyo: 0, count:   1
# *************
# cnt:          92
# coeff_sel: 10, sum_rst: 1, sum_en: 0, srdyo: 0, count:   1
# *************
# cnt:          93
# coeff_sel: 10, sum_rst: 1, sum_en: 0, srdyo: 0, count:   1
# *************
# cnt:          94
# coeff_sel: 10, sum_rst: 1, sum_en: 0, srdyo: 0, count:   1
# *************
# cnt:          95
# coeff_sel: 10, sum_rst: 1, sum_en: 0, srdyo: 0, count:   1
# *************
# cnt:          96
# coeff_sel: 10, sum_rst: 1, sum_en: 0, srdyo: 0, count:   1
# *************
# cnt:          97
# coeff_sel: 10, sum_rst: 1, sum_en: 0, srdyo: 0, count:   1
# *************
# cnt:          98
# coeff_sel: 10, sum_rst: 1, sum_en: 0, srdyo: 0, count:   1
# *************
# cnt:          99
# coeff_sel: 10, sum_rst: 1, sum_en: 0, srdyo: 0, count:   1
# *************
# cnt:         100
# coeff_sel: 10, sum_rst: 1, sum_en: 0, srdyo: 0, count:   1
# *************
# cnt:         101
# coeff_sel: 10, sum_rst: 1, sum_en: 0, srdyo: 0, count:   1
# *************
# cnt:         102
# coeff_sel: 10, sum_rst: 1, sum_en: 0, srdyo: 0, count:   1
# *************
# cnt:         103
# coeff_sel: 10, sum_rst: 1, sum_en: 0, srdyo: 0, count:   1
# *************
# cnt:         104
# coeff_sel: 10, sum_rst: 1, sum_en: 0, srdyo: 0, count:   1
# *************
# cnt:         105
# coeff_sel: 10, sum_rst: 1, sum_en: 0, srdyo: 0, count:   1
# *************
# cnt:         106
# coeff_sel: 10, sum_rst: 1, sum_en: 0, srdyo: 0, count:   1
# *************
# cnt:         107
# coeff_sel: 10, sum_rst: 1, sum_en: 0, srdyo: 0, count:   1
# *************
# cnt:         108
# coeff_sel: 10, sum_rst: 1, sum_en: 0, srdyo: 0, count:   1
# *************
# cnt:         109
# coeff_sel: 10, sum_rst: 1, sum_en: 0, srdyo: 0, count:   1
# *************
# cnt:         110
# coeff_sel: 10, sum_rst: 1, sum_en: 0, srdyo: 0, count:   1
# *************
# cnt:         111
# coeff_sel: 10, sum_rst: 1, sum_en: 0, srdyo: 0, count:   1
# *************
# cnt:         112
# coeff_sel: 10, sum_rst: 1, sum_en: 0, srdyo: 0, count:   1
# *************
# cnt:         113
# coeff_sel: 10, sum_rst: 1, sum_en: 0, srdyo: 0, count:   1
# *************
# cnt:         114
# coeff_sel: 10, sum_rst: 1, sum_en: 0, srdyo: 0, count:   1
# *************
# cnt:         115
# coeff_sel: 10, sum_rst: 1, sum_en: 0, srdyo: 0, count:   1
# *************
# cnt:         116
# coeff_sel: 10, sum_rst: 1, sum_en: 0, srdyo: 0, count:   1
# *************
# cnt:         117
# coeff_sel: 10, sum_rst: 1, sum_en: 0, srdyo: 0, count:   1
# *************
# cnt:         118
# coeff_sel: 10, sum_rst: 1, sum_en: 0, srdyo: 0, count:   1
# *************
# cnt:         119
# coeff_sel: 10, sum_rst: 1, sum_en: 0, srdyo: 0, count:   1
# *************
# cnt:         120
# coeff_sel: 10, sum_rst: 1, sum_en: 0, srdyo: 0, count:   1
# *************
# cnt:         121
# coeff_sel: 10, sum_rst: 1, sum_en: 0, srdyo: 0, count:   1
# *************
# cnt:         122
# coeff_sel: 10, sum_rst: 1, sum_en: 0, srdyo: 0, count:   1
# *************
# cnt:         123
# coeff_sel: 10, sum_rst: 1, sum_en: 0, srdyo: 0, count:   1
# *************
# cnt:         124
# coeff_sel: 10, sum_rst: 1, sum_en: 0, srdyo: 0, count:   1
# *************
# cnt:         125
# coeff_sel: 10, sum_rst: 1, sum_en: 0, srdyo: 0, count:   1
# *************
# cnt:         126
# coeff_sel: 10, sum_rst: 1, sum_en: 0, srdyo: 0, count:   1
# *************
# cnt:         127
# coeff_sel: 10, sum_rst: 1, sum_en: 0, srdyo: 0, count:   1
# *************
# cnt:         128
# coeff_sel: 10, sum_rst: 1, sum_en: 0, srdyo: 0, count:   1
# *************
# cnt:         129
# coeff_sel: 10, sum_rst: 1, sum_en: 0, srdyo: 0, count:   1
# *************
# cnt:         130
# coeff_sel: 10, sum_rst: 1, sum_en: 0, srdyo: 0, count:   1
# *************
# cnt:         131
# coeff_sel: 10, sum_rst: 1, sum_en: 0, srdyo: 0, count:   1
# *************
# cnt:         132
# coeff_sel: 10, sum_rst: 1, sum_en: 0, srdyo: 0, count:   1
# *************
# cnt:         133
# coeff_sel: 10, sum_rst: 1, sum_en: 0, srdyo: 0, count:   1
# *************
# cnt:         134
# coeff_sel: 10, sum_rst: 1, sum_en: 0, srdyo: 0, count:   1
# *************
# cnt:         135
# coeff_sel: 10, sum_rst: 1, sum_en: 0, srdyo: 0, count:   1
# *************
# cnt:         136
# coeff_sel: 10, sum_rst: 1, sum_en: 0, srdyo: 0, count:   1
# *************
# cnt:         137
# coeff_sel: 10, sum_rst: 1, sum_en: 0, srdyo: 0, count:   1
# *************
# cnt:         138
# coeff_sel: 10, sum_rst: 1, sum_en: 0, srdyo: 0, count:   1
# *************
# cnt:         139
# coeff_sel: 10, sum_rst: 1, sum_en: 0, srdyo: 0, count:   1
# *************
# cnt:         140
# coeff_sel: 10, sum_rst: 1, sum_en: 0, srdyo: 0, count:   1
# *************
# cnt:         141
# coeff_sel: 10, sum_rst: 1, sum_en: 0, srdyo: 0, count:   1
# *************
# cnt:         142
# coeff_sel: 10, sum_rst: 1, sum_en: 0, srdyo: 0, count:   1
# *************
# cnt:         143
# coeff_sel: 10, sum_rst: 1, sum_en: 0, srdyo: 0, count:   1
# *************
# cnt:         144
# coeff_sel: 10, sum_rst: 1, sum_en: 0, srdyo: 0, count:   1
# *************
# cnt:         145
# coeff_sel: 10, sum_rst: 1, sum_en: 0, srdyo: 0, count:   1
# *************
# cnt:         146
# coeff_sel: 10, sum_rst: 1, sum_en: 0, srdyo: 0, count:   1
# *************
# cnt:         147
# coeff_sel: 10, sum_rst: 1, sum_en: 0, srdyo: 0, count:   1
# *************
# cnt:         148
# coeff_sel: 10, sum_rst: 1, sum_en: 0, srdyo: 0, count:   1
# *************
# cnt:         149
# coeff_sel: 10, sum_rst: 1, sum_en: 0, srdyo: 0, count:   1
# *************
# cnt:         150
# coeff_sel: 10, sum_rst: 1, sum_en: 0, srdyo: 0, count:   1
# *************
# cnt:         151
# coeff_sel: 10, sum_rst: 1, sum_en: 0, srdyo: 0, count:   1
# *************
# cnt:         152
# coeff_sel: 10, sum_rst: 1, sum_en: 0, srdyo: 0, count:   1
# *************
# cnt:         153
# coeff_sel: 10, sum_rst: 1, sum_en: 0, srdyo: 0, count:   1
# *************
# cnt:         154
# coeff_sel: 10, sum_rst: 1, sum_en: 0, srdyo: 0, count:   1
# *************
# cnt:         155
# coeff_sel: 10, sum_rst: 1, sum_en: 0, srdyo: 0, count:   1
# *************
# cnt:         156
# coeff_sel: 10, sum_rst: 1, sum_en: 0, srdyo: 0, count:   1
# *************
# cnt:         157
# coeff_sel: 10, sum_rst: 1, sum_en: 0, srdyo: 0, count:   1
# *************
# cnt:         158
# coeff_sel: 10, sum_rst: 1, sum_en: 0, srdyo: 0, count:   1
# *************
# cnt:         159
# coeff_sel: 10, sum_rst: 1, sum_en: 0, srdyo: 0, count:   1
# *************
# cnt:         160
# coeff_sel: 10, sum_rst: 1, sum_en: 0, srdyo: 0, count:   1
# *************
# cnt:         161
# coeff_sel: 10, sum_rst: 1, sum_en: 0, srdyo: 0, count:   1
# *************
# cnt:         162
# coeff_sel: 10, sum_rst: 1, sum_en: 0, srdyo: 0, count:   1
# *************
# cnt:         163
# coeff_sel: 10, sum_rst: 1, sum_en: 0, srdyo: 0, count:   1
# *************
# cnt:         164
# coeff_sel: 10, sum_rst: 1, sum_en: 0, srdyo: 0, count:   1
# *************
# cnt:         165
# coeff_sel: 10, sum_rst: 1, sum_en: 0, srdyo: 0, count:   1
# *************
# cnt:         166
# coeff_sel: 10, sum_rst: 1, sum_en: 0, srdyo: 0, count:   1
# *************
# cnt:         167
# coeff_sel: 10, sum_rst: 1, sum_en: 0, srdyo: 0, count:   1
# *************
# cnt:         168
# coeff_sel: 10, sum_rst: 1, sum_en: 0, srdyo: 0, count:   1
# *************
# cnt:         169
# coeff_sel: 10, sum_rst: 1, sum_en: 0, srdyo: 0, count:   1
# *************
# cnt:         170
# coeff_sel: 10, sum_rst: 1, sum_en: 0, srdyo: 0, count:   1
# *************
# cnt:         171
# coeff_sel: 10, sum_rst: 1, sum_en: 0, srdyo: 0, count:   1
# *************
# cnt:         172
# coeff_sel: 10, sum_rst: 1, sum_en: 0, srdyo: 0, count:   1
# *************
# cnt:         173
# coeff_sel: 10, sum_rst: 1, sum_en: 0, srdyo: 0, count:   1
# *************
# cnt:         174
# coeff_sel: 10, sum_rst: 1, sum_en: 0, srdyo: 0, count:   1
# *************
# cnt:         175
# coeff_sel: 10, sum_rst: 1, sum_en: 0, srdyo: 0, count:   1
# *************
# cnt:         176
# coeff_sel: 10, sum_rst: 1, sum_en: 0, srdyo: 0, count:   1
# *************
# cnt:         177
# coeff_sel: 10, sum_rst: 1, sum_en: 0, srdyo: 0, count:   1
# *************
# cnt:         178
# coeff_sel: 10, sum_rst: 1, sum_en: 0, srdyo: 0, count:   1
# *************
# cnt:         179
# coeff_sel: 10, sum_rst: 1, sum_en: 0, srdyo: 0, count:   1
# *************
# cnt:         180
# coeff_sel: 10, sum_rst: 1, sum_en: 0, srdyo: 0, count:   1
# *************
# cnt:         181
# coeff_sel: 10, sum_rst: 1, sum_en: 0, srdyo: 0, count:   1
# *************
# cnt:         182
# coeff_sel: 10, sum_rst: 1, sum_en: 0, srdyo: 0, count:   1
# *************
# cnt:         183
# coeff_sel: 10, sum_rst: 1, sum_en: 0, srdyo: 0, count:   1
# *************
# cnt:         184
# coeff_sel: 10, sum_rst: 1, sum_en: 0, srdyo: 0, count:   1
# *************
# cnt:         185
# coeff_sel: 10, sum_rst: 1, sum_en: 0, srdyo: 0, count:   1
# *************
# cnt:         186
# coeff_sel: 10, sum_rst: 1, sum_en: 0, srdyo: 0, count:   1
# *************
# cnt:         187
# coeff_sel: 10, sum_rst: 1, sum_en: 0, srdyo: 0, count:   1
# *************
# cnt:         188
# coeff_sel: 10, sum_rst: 1, sum_en: 0, srdyo: 0, count:   1
# *************
# cnt:         189
# coeff_sel: 10, sum_rst: 1, sum_en: 0, srdyo: 0, count:   1
# *************
# cnt:         190
# coeff_sel: 10, sum_rst: 1, sum_en: 0, srdyo: 0, count:   1
# *************
# cnt:         191
# coeff_sel: 10, sum_rst: 1, sum_en: 0, srdyo: 0, count:   1
# *************
# cnt:         192
# coeff_sel: 10, sum_rst: 1, sum_en: 0, srdyo: 0, count:   1
# *************
# cnt:         193
# coeff_sel: 10, sum_rst: 1, sum_en: 0, srdyo: 0, count:   1
# *************
# cnt:         194
# coeff_sel: 10, sum_rst: 1, sum_en: 0, srdyo: 0, count:   1
# *************
# cnt:         195
# coeff_sel: 10, sum_rst: 1, sum_en: 0, srdyo: 0, count:   1
# *************
# cnt:         196
# coeff_sel: 10, sum_rst: 1, sum_en: 0, srdyo: 0, count:   1
# *************
# cnt:         197
# coeff_sel: 10, sum_rst: 1, sum_en: 0, srdyo: 0, count:   1
# *************
# cnt:         198
# coeff_sel: 10, sum_rst: 1, sum_en: 0, srdyo: 0, count:   1
# *************
# cnt:         199
# coeff_sel: 10, sum_rst: 1, sum_en: 0, srdyo: 0, count:   1
# *************
# cnt:         200
# coeff_sel: 10, sum_rst: 1, sum_en: 0, srdyo: 0, count:   1
# Break in Module control_tb at /w/home.02/ee/grad/jordi/ee216a/EEM216A_project/EE216A_F15_FinalProject_v2/verilog/control_tb.v line 91
# Compile of hornerLoop.v was successful.
# Compile of control.v was successful.
# Compile of control_tb.v was successful.
# 3 compiles, 0 failed with no errors. 
vsim -novopt work.control_tb
# vsim -novopt work.control_tb 
# Refreshing /w/home.02/ee/grad/jordi/ee216a/EEM216A_project/EE216A_F15_FinalProject_v2/verilog/work.control_tb
# Loading work.control_tb
# Refreshing /w/home.02/ee/grad/jordi/ee216a/EEM216A_project/EE216A_F15_FinalProject_v2/verilog/work.control
# Loading work.control
restart; run -all
# *************
# coeff_sel: 10, sum_rst: 0, sum_en: 0, srdyo: 0, count:   0
# *************
# coeff_sel: 10, sum_rst: 0, sum_en: 0, srdyo: 0, count:   0
# *************
# coeff_sel: 10, sum_rst: 0, sum_en: 0, srdyo: 0, count:   0
# *************
# coeff_sel: 10, sum_rst: 0, sum_en: 0, srdyo: 0, count:   0
# *************
# cnt:           1
# coeff_sel: 10, sum_rst: 1, sum_en: 0, srdyo: 0, count:   1
# *************
# cnt:           2
# coeff_sel: 10, sum_rst: 0, sum_en: 0, srdyo: 0, count:   2
# *************
# cnt:           3
# coeff_sel: 10, sum_rst: 0, sum_en: 0, srdyo: 0, count:   3
# *************
# cnt:           4
# coeff_sel: 10, sum_rst: 0, sum_en: 0, srdyo: 0, count:   4
# *************
# cnt:           5
# coeff_sel: 10, sum_rst: 0, sum_en: 0, srdyo: 0, count:   5
# *************
# cnt:           6
# coeff_sel: 10, sum_rst: 0, sum_en: 0, srdyo: 0, count:   6
# *************
# cnt:           7
# coeff_sel: 10, sum_rst: 0, sum_en: 0, srdyo: 0, count:   7
# *************
# cnt:           8
# coeff_sel: 10, sum_rst: 0, sum_en: 0, srdyo: 0, count:   8
# *************
# cnt:           9
# coeff_sel: 10, sum_rst: 0, sum_en: 0, srdyo: 0, count:   9
# *************
# cnt:          10
# coeff_sel: 10, sum_rst: 0, sum_en: 0, srdyo: 0, count:  10
# *************
# cnt:          11
# coeff_sel: 10, sum_rst: 0, sum_en: 0, srdyo: 0, count:  11
# *************
# cnt:          12
# coeff_sel: 10, sum_rst: 0, sum_en: 0, srdyo: 0, count:  12
# *************
# cnt:          13
# coeff_sel: 10, sum_rst: 0, sum_en: 0, srdyo: 0, count:  13
# *************
# cnt:          14
# coeff_sel: 10, sum_rst: 0, sum_en: 0, srdyo: 0, count:  14
# *************
# cnt:          15
# coeff_sel: 10, sum_rst: 0, sum_en: 0, srdyo: 0, count:  15
# *************
# cnt:          16
# coeff_sel: 10, sum_rst: 0, sum_en: 0, srdyo: 0, count:  16
# *************
# cnt:          17
# coeff_sel: 10, sum_rst: 0, sum_en: 0, srdyo: 0, count:  17
# *************
# cnt:          18
# coeff_sel: 10, sum_rst: 0, sum_en: 1, srdyo: 0, count:  18
# *************
# cnt:          19
# coeff_sel: 10, sum_rst: 0, sum_en: 1, srdyo: 0, count:  19
# *************
# cnt:          20
# coeff_sel: 10, sum_rst: 0, sum_en: 1, srdyo: 0, count:  20
# *************
# cnt:          21
# coeff_sel: 10, sum_rst: 0, sum_en: 1, srdyo: 0, count:  21
# *************
# cnt:          22
# coeff_sel: 10, sum_rst: 0, sum_en: 1, srdyo: 0, count:  22
# *************
# cnt:          23
# coeff_sel: 10, sum_rst: 0, sum_en: 1, srdyo: 0, count:  23
# *************
# cnt:          24
# coeff_sel: 10, sum_rst: 0, sum_en: 1, srdyo: 0, count:  24
# *************
# cnt:          25
# coeff_sel: 10, sum_rst: 0, sum_en: 1, srdyo: 0, count:  25
# *************
# cnt:          26
# coeff_sel: 10, sum_rst: 0, sum_en: 1, srdyo: 0, count:  26
# *************
# cnt:          27
# coeff_sel: 10, sum_rst: 0, sum_en: 1, srdyo: 0, count:  27
# *************
# cnt:          28
# coeff_sel: 10, sum_rst: 0, sum_en: 1, srdyo: 0, count:  28
# *************
# cnt:          29
# coeff_sel: 10, sum_rst: 0, sum_en: 1, srdyo: 0, count:  29
# *************
# cnt:          30
# coeff_sel: 10, sum_rst: 0, sum_en: 1, srdyo: 0, count:  30
# *************
# cnt:          31
# coeff_sel: 10, sum_rst: 0, sum_en: 1, srdyo: 0, count:  31
# *************
# cnt:          32
# coeff_sel: 10, sum_rst: 0, sum_en: 1, srdyo: 0, count:  32
# *************
# cnt:          33
# coeff_sel: 10, sum_rst: 0, sum_en: 1, srdyo: 0, count:  33
# *************
# cnt:          34
# coeff_sel:  9, sum_rst: 0, sum_en: 1, srdyo: 0, count:  34
# *************
# cnt:          35
# coeff_sel:  9, sum_rst: 0, sum_en: 1, srdyo: 0, count:  35
# *************
# cnt:          36
# coeff_sel:  9, sum_rst: 0, sum_en: 1, srdyo: 0, count:  36
# *************
# cnt:          37
# coeff_sel:  9, sum_rst: 0, sum_en: 1, srdyo: 0, count:  37
# *************
# cnt:          38
# coeff_sel:  9, sum_rst: 0, sum_en: 1, srdyo: 0, count:  38
# *************
# cnt:          39
# coeff_sel:  9, sum_rst: 0, sum_en: 1, srdyo: 0, count:  39
# *************
# cnt:          40
# coeff_sel:  9, sum_rst: 0, sum_en: 1, srdyo: 0, count:  40
# *************
# cnt:          41
# coeff_sel:  9, sum_rst: 0, sum_en: 1, srdyo: 0, count:  41
# *************
# cnt:          42
# coeff_sel:  9, sum_rst: 0, sum_en: 1, srdyo: 0, count:  42
# *************
# cnt:          43
# coeff_sel:  9, sum_rst: 0, sum_en: 1, srdyo: 0, count:  43
# *************
# cnt:          44
# coeff_sel:  9, sum_rst: 0, sum_en: 1, srdyo: 0, count:  44
# *************
# cnt:          45
# coeff_sel:  9, sum_rst: 0, sum_en: 1, srdyo: 0, count:  45
# *************
# cnt:          46
# coeff_sel:  9, sum_rst: 0, sum_en: 1, srdyo: 0, count:  46
# *************
# cnt:          47
# coeff_sel:  9, sum_rst: 0, sum_en: 1, srdyo: 0, count:  47
# *************
# cnt:          48
# coeff_sel:  9, sum_rst: 0, sum_en: 1, srdyo: 0, count:  48
# *************
# cnt:          49
